{
  "status": 0,
  "result": [
    {
      "createdById": "0052w000003LGXtAAO",
      "createdByName": "Prakash Tiwari",
      "createdDate": "2020-06-29T14:41:18.000Z",
      "fileName": "classes/FundController.cls",
      "fullName": "FundController",
      "id": "01p2w00000Bwi1qAAB",
      "lastModifiedById": "0052w000003LGXtAAO",
      "lastModifiedByName": "Prakash Tiwari",
      "lastModifiedDate": "2020-07-13T11:19:22.000Z",
      "manageableState": "unmanaged",
      "type": "ApexClass"
    },
    {
      "createdById": "0052w000003LGXtAAO",
      "createdByName": "Prakash Tiwari",
      "createdDate": "2020-06-24T12:34:12.000Z",
      "fileName": "classes/LightningConnectQuickstart.cls",
      "fullName": "LightningConnectQuickstart",
      "id": "01p2w00000BvMEKAA3",
      "lastModifiedById": "0052w000003LGXtAAO",
      "lastModifiedByName": "Prakash Tiwari",
      "lastModifiedDate": "2020-07-13T11:19:22.000Z",
      "manageableState": "unmanaged",
      "type": "ApexClass"
    },
    {
      "createdById": "0052w000003LGXtAAO",
      "createdByName": "Prakash Tiwari",
      "createdDate": "2020-07-01T12:12:07.000Z",
      "fileName": "classes/ContactController.cls",
      "fullName": "ContactController",
      "id": "01p2w00000BxJDHAA3",
      "lastModifiedById": "0052w000003LGXtAAO",
      "lastModifiedByName": "Prakash Tiwari",
      "lastModifiedDate": "2020-07-13T11:19:22.000Z",
      "manageableState": "unmanaged",
      "type": "ApexClass"
    },
    {
      "createdById": "0052w000003LGXtAAO",
      "createdByName": "Prakash Tiwari",
      "createdDate": "2020-07-13T07:31:47.000Z",
      "fileName": "classes/SimilarBoatsControllerTest.cls",
      "fullName": "SimilarBoatsControllerTest",
      "id": "01p2w00000DA0mgAAD",
      "lastModifiedById": "0052w000003LGXtAAO",
      "lastModifiedByName": "Prakash Tiwari",
      "lastModifiedDate": "2020-07-13T07:31:47.000Z",
      "manageableState": "installedEditable",
      "type": "ApexClass"
    },
    {
      "createdById": "0052w000003LGXtAAO",
      "createdByName": "Prakash Tiwari",
      "createdDate": "2020-06-24T12:34:12.000Z",
      "fileName": "classes/TestLightningConnectQuickstart.cls",
      "fullName": "TestLightningConnectQuickstart",
      "id": "01p2w00000BvMELAA3",
      "lastModifiedById": "0052w000003LGXtAAO",
      "lastModifiedByName": "Prakash Tiwari",
      "lastModifiedDate": "2020-07-13T11:19:22.000Z",
      "manageableState": "unmanaged",
      "type": "ApexClass"
    },
    {
      "createdById": "0052w000003LGXtAAO",
      "createdByName": "Prakash Tiwari",
      "createdDate": "2020-03-27T12:15:24.000Z",
      "fileName": "classes/trlhdtips__tt_UtilController.cls",
      "fullName": "trlhdtips__tt_UtilController",
      "id": "01p2w00000AFJqVAAX",
      "lastModifiedById": "0052w000003LGXtAAO",
      "lastModifiedByName": "Prakash Tiwari",
      "lastModifiedDate": "2020-03-27T12:15:24.000Z",
      "manageableState": "installed",
      "namespacePrefix": "trlhdtips",
      "type": "ApexClass"
    },
    {
      "createdById": "0052w000003LGXtAAO",
      "createdByName": "Prakash Tiwari",
      "createdDate": "2020-07-13T07:31:47.000Z",
      "fileName": "classes/GenerateDataTests.cls",
      "fullName": "GenerateDataTests",
      "id": "01p2w00000DA0meAAD",
      "lastModifiedById": "0052w000003LGXtAAO",
      "lastModifiedByName": "Prakash Tiwari",
      "lastModifiedDate": "2020-07-13T07:31:47.000Z",
      "manageableState": "installedEditable",
      "type": "ApexClass"
    },
    {
      "createdById": "0052w000003LGXtAAO",
      "createdByName": "Prakash Tiwari",
      "createdDate": "2020-07-13T07:31:47.000Z",
      "fileName": "classes/BoatDataService.cls",
      "fullName": "BoatDataService",
      "id": "01p2w00000DA0mbAAD",
      "lastModifiedById": "0052w000003LGXtAAO",
      "lastModifiedByName": "Prakash Tiwari",
      "lastModifiedDate": "2020-07-13T14:22:09.000Z",
      "manageableState": "installedEditable",
      "type": "ApexClass"
    },
    {
      "createdById": "0052w000003LGXtAAO",
      "createdByName": "Prakash Tiwari",
      "createdDate": "2020-07-13T07:31:47.000Z",
      "fileName": "classes/SimilarBoatsController.cls",
      "fullName": "SimilarBoatsController",
      "id": "01p2w00000DA0mfAAD",
      "lastModifiedById": "0052w000003LGXtAAO",
      "lastModifiedByName": "Prakash Tiwari",
      "lastModifiedDate": "2020-07-13T07:31:47.000Z",
      "manageableState": "installedEditable",
      "type": "ApexClass"
    },
    {
      "createdById": "0052w000003LGXtAAO",
      "createdByName": "Prakash Tiwari",
      "createdDate": "2020-07-13T07:31:47.000Z",
      "fileName": "classes/GenerateData.cls",
      "fullName": "GenerateData",
      "id": "01p2w00000DA0mdAAD",
      "lastModifiedById": "0052w000003LGXtAAO",
      "lastModifiedByName": "Prakash Tiwari",
      "lastModifiedDate": "2020-07-13T07:31:47.000Z",
      "manageableState": "installedEditable",
      "type": "ApexClass"
    },
    {
      "createdById": "0052w000003LGXtAAO",
      "createdByName": "Prakash Tiwari",
      "createdDate": "2020-07-13T07:31:47.000Z",
      "fileName": "classes/BoatDataServiceTest.cls",
      "fullName": "BoatDataServiceTest",
      "id": "01p2w00000DA0mcAAD",
      "lastModifiedById": "0052w000003LGXtAAO",
      "lastModifiedByName": "Prakash Tiwari",
      "lastModifiedDate": "2020-07-13T07:31:47.000Z",
      "manageableState": "installedEditable",
      "type": "ApexClass"
    },
    {
      "createdById": "0052w000003LGXtAAO",
      "createdByName": "Prakash Tiwari",
      "createdDate": "2020-03-27T12:15:24.000Z",
      "fileName": "classes/trlhdtips__tt_UtilControllerTest.cls",
      "fullName": "trlhdtips__tt_UtilControllerTest",
      "id": "01p2w00000AFJqWAAX",
      "lastModifiedById": "0052w000003LGXtAAO",
      "lastModifiedByName": "Prakash Tiwari",
      "lastModifiedDate": "2020-03-27T12:15:24.000Z",
      "manageableState": "installed",
      "namespacePrefix": "trlhdtips",
      "type": "ApexClass"
    },
    {
      "createdById": "0052w000003LGXtAAO",
      "createdByName": "Prakash Tiwari",
      "createdDate": "2020-06-29T14:41:18.000Z",
      "fileName": "classes/FundControllerTest.cls",
      "fullName": "FundControllerTest",
      "id": "01p2w00000Bwi1rAAB",
      "lastModifiedById": "0052w000003LGXtAAO",
      "lastModifiedByName": "Prakash Tiwari",
      "lastModifiedDate": "2020-07-13T11:19:22.000Z",
      "manageableState": "unmanaged",
      "type": "ApexClass"
    }
  ]
}
